dt,x,y,position,velocity,acceleration,jerk,heading
0.020000,0.000000,0.000000,0.000196,0.019602,0.980099,49.004961,0.000000
0.020000,0.000000,0.000000,0.000980,0.058806,1.960198,49.004961,0.000000
0.020000,0.000000,0.000000,0.002744,0.117612,2.940298,49.004961,0.000000
0.020000,0.000000,0.000000,0.005881,0.196020,3.920397,49.004961,0.000000
0.020000,0.002781,0.000000,0.010781,0.294030,4.900496,49.004961,0.000000
0.020000,0.009838,0.000000,0.017838,0.411642,5.880595,49.004961,0.000000
0.020000,0.019443,0.000000,0.027443,0.548856,6.860695,49.004961,0.000000
0.020000,0.031988,0.000000,0.039988,0.705671,7.840794,49.004961,0.000000
0.020000,0.047866,0.000000,0.055866,0.882089,8.820893,49.004961,0.000000
0.020000,0.067468,0.000000,0.075468,1.078109,9.800992,49.004961,0.000000
0.020000,0.091186,0.000000,0.099186,1.293731,10.781092,49.004961,0.000000
0.020000,0.119413,0.000000,0.127413,1.528955,11.761191,49.004961,0.000000
0.020000,0.152344,0.000000,0.160344,1.764179,11.761191,-0.000000,0.000000
0.020000,0.189980,0.000000,0.197980,1.999402,11.761191,0.000000,0.000000
0.020000,0.232320,0.000000,0.240320,2.234626,11.761191,-0.000000,0.000000
0.020000,0.279365,0.000000,0.287365,2.469850,11.761191,0.000000,0.000000
0.020000,0.331114,0.000000,0.339114,2.705074,11.761191,0.000000,0.000000
0.020000,0.387568,0.000000,0.395568,2.940298,11.761191,-0.000000,0.000000
0.020000,0.448726,0.000000,0.456726,3.175521,11.761191,0.000000,0.000000
0.020000,0.514589,0.000000,0.522589,3.410745,11.761191,0.000000,0.000000
0.020000,0.585156,0.000000,0.593156,3.645969,11.761191,0.000000,0.000000
0.020000,0.660428,0.000000,0.668428,3.881193,11.761191,-0.000000,0.000000
0.020000,0.740404,0.000000,0.748404,4.116417,11.761191,0.000000,0.000000
0.020000,0.825084,0.000000,0.833084,4.351641,11.761191,0.000000,0.000000
0.020000,0.914469,0.000000,0.922469,4.586864,11.761191,-0.000000,0.000000
0.020000,1.008559,0.000000,1.016559,4.822088,11.761191,0.000000,0.000000
0.020000,1.107353,0.000000,1.115353,5.057312,11.761191,0.000000,0.000000
0.020000,1.210851,0.000000,1.218851,5.292536,11.761191,-0.000000,0.000000
0.020000,1.319054,0.000000,1.327054,5.527760,11.761191,0.000000,0.000000
0.020000,1.431962,0.000000,1.439962,5.762983,11.761191,0.000000,0.000000
0.020000,1.549574,0.000000,1.557574,5.998207,11.761191,0.000000,0.000000
0.020000,1.671890,0.000000,1.679890,6.233431,11.761191,-0.000000,0.000000
0.020000,1.798911,0.000000,1.806911,6.468655,11.761191,0.000000,0.000000
0.020000,1.930636,0.000000,1.938636,6.703879,11.761191,0.000000,0.000000
0.020000,2.067066,0.000000,2.075066,6.939103,11.761191,0.000000,0.000000
0.020000,2.208200,0.000000,2.216200,7.174326,11.761191,-0.000000,0.000000
0.020000,2.353843,0.000000,2.361843,7.389948,10.781092,-49.004961,0.000000
0.020000,2.503602,0.000000,2.511602,7.585968,9.800992,-49.004961,0.000000
0.020000,2.657086,0.000000,2.665086,7.762386,8.820893,-49.004961,0.000000
0.020000,2.813902,0.000000,2.821902,7.919202,7.840794,-49.004961,0.000000
0.020000,2.973658,0.000000,2.981658,8.056416,6.860695,-49.004961,0.000000
0.020000,3.135962,0.000000,3.143962,8.174028,5.880595,-49.004961,0.000000
0.020000,3.300423,0.000000,3.308423,8.272037,4.900496,-49.004961,0.000000
0.020000,3.466648,0.000000,3.474648,8.350445,3.920397,-49.004961,0.000000
0.020000,3.634245,0.000000,3.642245,8.409251,2.940298,-49.004961,0.000000
0.020000,3.802822,0.000000,3.810822,8.448455,1.960198,-49.004961,0.000000
0.020000,3.971987,0.000000,3.979987,8.468057,0.980099,-49.004961,0.000000
0.020000,4.141208,0.000000,4.149208,8.454014,-0.702170,-84.113478,0.000000
0.020000,4.309951,0.000000,4.317951,8.420369,-1.682270,-49.004961,0.000000
0.020000,4.477826,0.000000,4.485826,8.367121,-2.662369,-49.004961,0.000000
0.020000,4.644440,0.000000,4.652440,8.294272,-3.642468,-49.004961,0.000000
0.020000,4.809401,0.000000,4.817401,8.201820,-4.622567,-49.004961,0.000000
0.020000,4.972317,0.000000,4.980317,8.089767,-5.602666,-49.004961,0.000000
0.020000,5.132796,0.000000,5.140796,7.958112,-6.582766,-49.004961,0.000000
0.020000,5.290446,0.000000,5.298446,7.806855,-7.562865,-49.004961,0.000000
0.020000,5.444874,0.000000,5.452874,7.635995,-8.542964,-49.004961,0.000000
0.020000,5.595689,0.000000,5.603689,7.445534,-9.523063,-49.004961,0.000000
0.020000,5.742499,0.000000,5.750499,7.235471,-10.503163,-49.004961,0.000000
0.020000,5.884912,0.000000,5.892912,7.005805,-11.483262,-49.004961,0.000000
0.020000,6.022676,0.000000,6.030676,6.770582,-11.761191,-13.896445,0.000000
0.020000,6.155735,0.000000,6.163735,6.535358,-11.761191,-0.000000,0.000000
0.020000,6.284090,0.000000,6.292090,6.300134,-11.761191,-0.000000,0.000000
0.020000,6.407741,0.000000,6.415741,6.064910,-11.761191,0.000000,0.000000
0.020000,6.526687,0.000000,6.534687,5.829686,-11.761191,-0.000000,0.000000
0.020000,6.640928,0.000000,6.648928,5.594463,-11.761191,0.000000,0.000000
0.020000,6.750465,0.000000,6.758465,5.359239,-11.761191,-0.000000,0.000000
0.020000,6.855298,0.000000,6.863298,5.124015,-11.761191,0.000000,0.000000
0.020000,6.955426,0.000000,6.963426,4.888791,-11.761191,-0.000000,0.000000
0.020000,7.050849,0.000000,7.058849,4.653567,-11.761191,0.000000,0.000000
0.020000,7.141569,0.000000,7.149569,4.418344,-11.761191,0.000000,0.000000
0.020000,7.227583,0.000000,7.235583,4.183120,-11.761191,0.000000,0.000000
0.020000,7.308893,0.000000,7.316893,3.947896,-11.761191,-0.000000,0.000000
0.020000,7.385499,0.000000,7.393499,3.712672,-11.761191,0.000000,0.000000
0.020000,7.457400,0.000000,7.465400,3.477448,-11.761191,0.000000,0.000000
0.020000,7.524597,0.000000,7.532597,3.242224,-11.761191,-0.000000,0.000000
0.020000,7.587089,0.000000,7.595089,3.007001,-11.761191,0.000000,0.000000
0.020000,7.644877,0.000000,7.652877,2.771777,-11.761191,0.000000,0.000000
0.020000,7.697960,0.000000,7.705960,2.536553,-11.761191,0.000000,0.000000
0.020000,7.746339,0.000000,7.754339,2.301329,-11.761191,-0.000000,0.000000
0.020000,7.790013,0.000000,7.798013,2.066105,-11.761191,0.000000,0.000000
0.020000,7.828983,0.000000,7.836983,1.830882,-11.761191,-0.000000,0.000000
0.020000,7.863249,0.000000,7.871249,1.595658,-11.761191,-0.000000,0.000000
0.020000,7.892810,0.000000,7.900810,1.360434,-11.761191,0.000000,0.000000
0.020000,7.917806,0.000000,7.925806,1.139254,-11.059020,35.108517,0.000000
0.020000,7.938576,0.000000,7.946576,0.937675,-10.078921,49.004961,0.000000
0.020000,7.955510,0.000000,7.963510,0.755699,-9.098822,49.004961,0.000000
0.020000,7.969000,0.000000,7.977000,0.593324,-8.118723,49.004961,0.000000
0.020000,7.979438,0.000000,7.987438,0.450552,-7.138623,49.004961,0.000000
0.020000,7.987218,0.000000,7.995218,0.327381,-6.158524,49.004961,0.000000
0.020000,7.992730,0.000000,8.000730,0.223813,-5.178425,49.004961,0.000000
0.020000,7.996366,0.000000,8.004366,0.139846,-4.198326,49.004961,0.000000
0.020000,7.998520,0.000000,8.006520,0.075482,-3.218227,49.004961,0.000000
0.020000,7.999582,0.000000,8.007582,0.030719,-2.238127,49.004961,0.000000
0.020000,7.999944,0.000000,8.007944,0.005559,-1.258028,49.004961,0.000000
0.020000,8.000000,0.000000,8.008000,0.000000,-0.277929,49.004961,0.000000
0.020000,8.000000,0.000000,8.008000,0.000000,0.000000,13.896445,0.000000
