dt,x,y,position,velocity,acceleration,jerk,heading
0.020000,9.493682,9.007312,0.000197,0.019737,0.986842,49.342105,0.002335
0.020000,9.493573,9.007311,0.000307,0.005460,-0.713834,-85.033797,0.002215
0.020000,9.493327,9.007311,0.000552,0.012289,0.341433,52.763339,0.001945
0.020000,9.492890,9.007310,0.000990,0.021859,0.478489,6.852798,0.001466
0.020000,9.492206,9.007309,0.001673,0.034184,0.616286,6.889839,0.000716
0.020000,9.493626,9.007309,0.003093,0.070980,1.839761,61.173782,6.282819
0.020000,9.501952,9.007299,0.011419,0.416296,17.265801,771.301987,6.281342
0.020000,9.512819,9.007269,0.022286,0.543367,6.353548,-545.612651,6.279405
0.020000,9.526559,9.007200,0.036026,0.687003,7.181821,41.413636,6.276940
0.020000,9.543500,9.007068,0.052968,0.847081,8.003890,41.103458,6.273877
0.020000,9.563975,9.006840,0.073444,1.023834,8.837640,41.687480,6.270138
0.020000,9.588297,9.006468,0.097769,1.216211,9.618871,39.061566,6.265644
0.020000,9.616614,9.005896,0.126091,1.416131,9.995982,18.855534,6.260339
0.020000,9.648891,9.005059,0.158379,1.614408,9.913867,-4.105713,6.254193
0.020000,9.685105,9.003882,0.194612,1.811635,9.861341,-2.626326,6.247170
0.020000,9.725203,9.002279,0.234742,2.006507,9.743593,-5.887363,6.239232
0.020000,9.769147,9.000151,0.278738,2.199809,9.665102,-3.924555,6.230331
0.020000,9.816873,8.997390,0.326544,2.390262,9.522675,-7.121359,6.220417
0.020000,9.868318,8.993874,0.378109,2.578276,9.400683,-6.099591,6.209432
0.020000,9.923409,8.989469,0.433376,2.763338,9.253114,-7.378485,6.197312
0.020000,9.982062,8.984028,0.492280,2.945203,9.093245,-7.993424,6.183984
0.020000,10.044178,8.977390,0.554750,3.123496,8.914630,-8.930764,6.169372
0.020000,10.109647,8.969379,0.620708,3.297899,8.720187,-9.722151,6.153390
0.020000,10.178345,8.959806,0.690069,3.468068,8.508414,-10.588621,6.135946
0.020000,10.250133,8.948465,0.762747,3.633902,8.291719,-10.834768,6.116943
0.020000,10.324852,8.935138,0.838646,3.794947,8.052253,-11.973296,6.096278
0.020000,10.402331,8.919590,0.917669,3.951149,7.810095,-12.107897,6.073844
0.020000,10.482379,8.901571,0.999721,4.102580,7.571575,-11.926004,6.049536
0.020000,10.564788,8.880819,1.084702,4.249060,7.323971,-12.380198,6.023249
0.020000,10.649340,8.857052,1.172531,4.391448,7.119404,-10.228367,5.994885
0.020000,10.735797,8.829980,1.263128,4.529835,6.919333,-10.003521,5.964364
0.020000,10.823920,8.799294,1.356440,4.665628,6.789691,-6.482122,5.931624
0.020000,10.913461,8.764673,1.452441,4.800058,6.721482,-3.410433,5.896641
0.020000,11.004181,8.725776,1.551148,4.935341,6.764147,2.133211,5.859427
0.020000,11.095844,8.682246,1.652622,5.073704,6.918144,7.699864,5.820055
0.020000,11.188235,8.633703,1.756990,5.218371,7.233338,15.759717,5.778662
0.020000,11.281159,8.579744,1.864444,5.372701,7.716528,24.159471,5.735459
0.020000,11.374441,8.519941,1.975250,5.540320,8.380948,33.221012,5.690739
0.020000,11.467813,8.453928,2.089600,5.717520,8.859986,23.951912,5.644927
0.020000,11.560922,8.381436,2.207602,5.900053,9.126637,13.332527,5.598574
0.020000,11.653447,8.302242,2.329391,6.089468,9.470775,17.206907,5.552262
0.020000,11.745094,8.216184,2.455109,6.285903,9.821738,17.548150,5.506580
0.020000,11.835583,8.123182,2.584870,6.488035,10.106603,14.243257,5.462085
0.020000,11.924655,8.023255,2.718732,6.693120,10.254228,7.381247,5.419274
0.020000,12.012064,7.916532,2.856682,6.897472,10.217645,-1.829143,5.378565
0.020000,12.097594,7.803258,2.998620,7.096911,9.971949,-12.284804,5.340282
0.020000,12.181058,7.683782,3.144362,7.287117,9.510293,-23.082773,5.304655
0.020000,12.262312,7.558550,3.293645,7.464144,8.851335,-32.947925,5.271829
0.020000,12.341258,7.428086,3.446135,7.624501,8.017864,-41.673563,5.241871
0.020000,12.417841,7.292975,3.601441,7.765311,7.040472,-48.869606,5.214785
0.020000,12.492134,7.153688,3.759303,7.893087,6.388824,-32.582384,5.190502
0.020000,12.564318,7.010546,3.919615,8.015627,6.126976,-13.092408,5.168906
0.020000,12.634594,6.863856,4.082270,8.132742,5.855764,-13.560567,5.149879
0.020000,12.703180,6.713906,4.247161,8.244545,5.590148,-13.280836,5.133305
0.020000,12.770310,6.560961,4.414190,8.351425,5.344007,-12.307049,5.119076
0.020000,12.836229,6.405265,4.583266,8.453815,5.119503,-11.225164,5.107093
0.020000,12.901197,6.247037,4.754312,8.552280,4.923242,-9.813089,5.097270
0.020000,12.965481,6.086480,4.927260,8.647439,4.757964,-8.263866,5.089534
0.020000,13.029362,5.923772,5.102059,8.739944,4.625262,-6.635098,5.083828
0.020000,13.093129,5.759076,5.278669,8.830465,4.526003,-4.962982,5.080108
0.020000,13.157086,5.592542,5.457062,8.919677,4.460631,-3.268573,5.078346
0.020000,13.221545,5.424302,5.637227,9.008266,4.429434,-1.559848,5.078527
0.020000,13.286811,5.254541,5.819103,9.093759,4.274671,-7.738142,5.080652
0.020000,13.353131,5.083625,6.002434,9.166590,3.641531,-31.657039,5.084729
0.020000,13.420705,4.912054,6.186833,9.219908,2.665922,-48.780429,5.090762
0.020000,13.489730,4.740337,6.371903,9.253544,1.681791,-49.206532,5.098752
0.020000,13.560398,4.568993,6.557249,9.267265,0.686025,-49.788301,5.108696
0.020000,13.632879,4.398550,6.742463,9.260725,-0.326993,-50.650925,5.120582
0.020000,13.707324,4.229552,6.927131,9.233387,-1.366869,-51.993795,5.134388
0.020000,13.783847,4.062557,7.110825,9.184681,-2.435312,-53.422154,5.150076
0.020000,13.862520,3.898134,7.293099,9.113734,-3.547339,-55.601343,5.167593
0.020000,13.943359,3.736871,7.473490,9.019513,-4.711074,-58.186770,5.186861
0.020000,14.026316,3.579365,7.651507,8.900882,-5.931557,-61.024137,5.207776
0.020000,14.111265,3.426221,7.826634,8.756317,-7.228260,-64.835167,5.230204
0.020000,14.198030,3.277988,7.998393,8.587990,-8.416312,-59.402559,5.253987
0.020000,14.286468,3.135012,8.166510,8.405820,-9.108514,-34.610119,5.278970
0.020000,14.376454,2.997504,8.330845,8.216755,-9.453229,-17.235769,5.305002
0.020000,14.467810,2.865660,8.491247,8.020095,-9.833018,-18.989423,5.331916
0.020000,14.560303,2.739658,8.647552,7.815268,-10.241369,-20.417562,5.359533
0.020000,14.653650,2.619656,8.799586,7.601711,-10.677833,-21.823209,5.387660
0.020000,14.747524,2.505777,8.947168,7.379093,-11.130896,-22.653129,5.416100
0.020000,14.841554,2.398113,9.090113,7.147262,-11.591538,-23.032133,5.444649
0.020000,14.935343,2.296713,9.228238,6.906207,-12.052778,-23.061996,5.473106
0.020000,15.028467,2.201583,9.361361,6.656187,-12.500968,-22.409473,5.501273
0.020000,15.120493,2.112684,9.489314,6.397617,-12.928509,-21.377042,5.528964
0.020000,15.210985,2.029934,9.611937,6.131145,-13.323623,-19.755732,5.556003
0.020000,15.299513,1.953209,9.729085,5.857443,-13.685089,-18.073263,5.582234
0.020000,15.385663,1.882347,9.840635,5.577454,-13.999465,-15.718819,5.607517
0.020000,15.469041,1.817157,9.946473,5.291912,-14.277084,-13.880926,5.631731
0.020000,15.549285,1.757420,10.046510,5.001875,-14.501876,-11.239611,5.654778
0.020000,15.626057,1.702899,10.140673,4.708134,-14.687049,-9.258666,5.676576
0.020000,15.699056,1.653346,10.228901,4.411419,-14.835714,-7.433248,5.697060
0.020000,15.768012,1.608506,10.311155,4.112672,-14.937355,-5.082040,5.716186
0.020000,15.832689,1.568124,10.387403,3.812424,-15.012400,-3.752261,5.733918
0.020000,15.892880,1.531954,10.457625,3.511112,-15.065599,-2.659932,5.750237
0.020000,15.948404,1.499756,10.521810,3.209236,-15.093805,-1.410315,5.765130
0.020000,15.999114,1.471303,10.579958,2.907367,-15.093432,0.018643,5.778594
0.020000,16.044881,1.446385,10.632067,2.605493,-15.093729,-0.014841,5.790632
0.020000,16.085597,1.424812,10.678146,2.303932,-15.078043,0.784282,5.801250
0.020000,16.121175,1.406410,10.718201,2.002758,-15.058704,0.966949,5.810455
0.020000,16.151615,1.390993,10.752322,1.706047,-14.835537,11.158382,5.818278
0.020000,16.177151,1.378289,10.780844,1.426085,-13.998092,41.872257,5.824803
0.020000,16.198189,1.367978,10.804273,1.171453,-12.731632,63.322997,5.830152
0.020000,16.215150,1.359766,10.823117,0.942223,-11.461491,63.507025,5.834447
0.020000,16.228460,1.353385,10.837878,0.738020,-10.210123,62.568386,5.837806
0.020000,16.238553,1.348583,10.849055,0.558881,-8.956997,62.656325,5.840348
0.020000,16.245873,1.345119,10.857153,0.404906,-7.698749,62.912383,5.842187
0.020000,16.250862,1.342768,10.862668,0.275727,-6.458946,61.990184,5.843439
0.020000,16.253969,1.341308,10.866101,0.171654,-5.203651,62.764721,5.844218
0.020000,16.255642,1.340523,10.867949,0.092403,-3.962549,62.055104,5.844638
0.020000,16.256330,1.340200,10.868710,0.038019,-2.719201,62.167426,5.844810
0.020000,16.256484,1.340128,10.868880,0.008524,-1.474749,62.222573,5.844849
0.020000,16.256484,1.340128,10.868880,0.000000,-0.426182,52.428372,5.844849
