dt,x,y,position,velocity,acceleration,jerk,heading
0.020000,9.825750,16.669575,0.000197,0.019737,0.986842,49.342105,6.280972
0.020000,9.825750,16.669575,0.000987,0.059211,1.973684,49.342105,6.281078
0.020000,9.825750,16.669575,0.002763,0.118421,2.960526,49.342105,6.281314
0.020000,9.825750,16.669575,0.005921,0.197368,3.947368,49.342105,6.281735
0.020000,9.825750,16.669575,0.010855,0.296053,4.934211,49.342105,6.282394
0.020000,9.826932,16.669575,0.017961,0.414474,5.921053,49.342105,0.000158
0.020000,9.836607,16.669583,0.027632,0.552632,6.907895,49.342105,0.001454
0.020000,9.849238,16.669612,0.040263,0.710526,7.894737,49.342105,0.003154
0.020000,9.865225,16.669680,0.056250,0.888158,8.881579,49.342105,0.005316
0.020000,9.884962,16.669811,0.075987,1.085526,9.868421,49.342105,0.008003
0.020000,9.908837,16.670041,0.099868,1.302632,10.855263,49.342105,0.011280
0.020000,9.937260,16.670418,0.128289,1.539474,11.842105,49.342105,0.015219
0.020000,9.970412,16.670999,0.161447,1.776316,11.842105,0.000000,0.019867
0.020000,10.008294,16.671854,0.199342,2.013158,11.842105,0.000000,0.025249
0.020000,10.050912,16.673061,0.241974,2.250000,11.842105,0.000000,0.031397
0.020000,10.098252,16.674712,0.289342,2.486842,11.842105,0.000000,0.038342
0.020000,10.150308,16.676911,0.341447,2.723684,11.842105,0.000000,0.046125
0.020000,10.207080,16.679777,0.398289,2.960526,11.842105,-0.000000,0.054790
0.020000,10.268549,16.683443,0.459868,3.197368,11.842105,0.000000,0.064387
0.020000,10.334704,16.688059,0.526184,3.434211,11.842105,-0.000000,0.074973
0.020000,10.405523,16.693791,0.597237,3.671053,11.842105,0.000000,0.086608
0.020000,10.480985,16.700826,0.673026,3.907895,11.842105,-0.000000,0.099364
0.020000,10.561057,16.709370,0.753553,4.144737,11.842105,0.000000,0.113316
0.020000,10.645696,16.719653,0.838816,4.381579,11.842105,0.000000,0.128548
0.020000,10.734855,16.731927,0.928816,4.618421,11.842105,0.000000,0.145152
0.020000,10.828464,16.746471,1.023553,4.855263,11.842105,-0.000000,0.163224
0.020000,10.926452,16.763593,1.123026,5.092105,11.842105,0.000000,0.182873
0.020000,11.028718,16.783629,1.227237,5.328947,11.842105,0.000000,0.204209
0.020000,11.135138,16.806948,1.336184,5.565789,11.842105,-0.000000,0.227348
0.020000,11.245563,16.833947,1.449868,5.802632,11.842105,0.000000,0.252405
0.020000,11.359820,16.865061,1.568289,6.039474,11.842105,0.000000,0.279498
0.020000,11.477690,16.900753,1.691447,6.276316,11.842105,0.000000,0.308736
0.020000,11.598909,16.941514,1.819342,6.513158,11.842105,0.000000,0.340209
0.020000,11.723172,16.987862,1.951974,6.750000,11.842105,-0.000000,0.373991
0.020000,11.850115,17.040334,2.089342,6.986842,11.842105,0.000000,0.410119
0.020000,11.979319,17.099475,2.231447,7.223684,11.842105,0.000000,0.448583
0.020000,12.110304,17.165825,2.378289,7.460526,11.842105,0.000000,0.489315
0.020000,12.242532,17.239908,2.529868,7.697368,11.842105,-0.000000,0.532175
0.020000,12.375248,17.322100,2.685987,7.914474,10.855263,-49.342105,0.576884
0.020000,12.507512,17.412576,2.846250,8.111842,9.868421,-49.342105,0.623017
0.020000,12.638407,17.511377,3.010263,8.289474,8.881579,-49.342105,0.670071
0.020000,12.767066,17.618399,3.177632,8.447368,7.894737,-49.342105,0.717486
0.020000,12.892700,17.733387,3.347961,8.585526,6.907895,-49.342105,0.764671
0.020000,13.014625,17.855950,3.520855,8.703947,5.921053,-49.342105,0.811046
0.020000,13.132279,17.985565,3.695921,8.802632,4.934211,-49.342105,0.856068
0.020000,13.245236,18.121613,3.872763,8.881579,3.947368,-49.342105,0.899262
0.020000,13.353204,18.263395,4.050987,8.940789,2.960526,-49.342105,0.940241
0.020000,13.456021,18.410163,4.230197,8.980263,1.973684,-49.342105,0.978712
0.020000,13.553642,18.561146,4.410000,9.000000,0.986842,-49.342105,1.014478
0.020000,13.646122,18.715562,4.590000,9.000000,0.000000,-49.342105,1.047427
0.020000,13.733687,18.872819,4.770000,9.000000,0.000000,0.000000,1.077554
0.020000,13.816698,19.032529,4.950000,9.000000,0.000000,0.000000,1.104927
0.020000,13.895523,19.194347,5.130000,9.000000,0.000000,0.000000,1.129640
0.020000,13.970537,19.357967,5.310000,9.000000,0.000000,0.000000,1.151798
0.020000,14.042111,19.523122,5.490000,9.000000,0.000000,0.000000,1.171514
0.020000,14.110611,19.689576,5.670000,9.000000,0.000000,0.000000,1.188896
0.020000,14.176395,19.857122,5.850000,9.000000,0.000000,0.000000,1.204051
0.020000,14.239814,20.025579,6.030000,9.000000,0.000000,0.000000,1.217076
0.020000,14.301208,20.194785,6.210000,9.000000,0.000000,0.000000,1.228057
0.020000,14.360908,20.364596,6.390000,9.000000,0.000000,0.000000,1.237071
0.020000,14.419238,20.534882,6.570000,9.000000,0.000000,0.000000,1.244182
0.020000,14.476514,20.705526,6.750000,9.000000,0.000000,0.000000,1.249439
0.020000,14.533049,20.876417,6.930000,9.000000,0.000000,0.000000,1.252881
0.020000,14.589148,21.047452,7.110000,9.000000,0.000000,0.000000,1.254533
0.020000,14.645116,21.218530,7.290000,9.000000,0.000000,0.000000,1.254408
0.020000,14.701217,21.389425,7.469868,8.986758,-0.662089,-33.104444,1.252506
0.020000,14.757648,21.559724,7.649273,8.953780,-1.648931,-49.342105,1.248825
0.020000,14.814584,21.728951,7.827821,8.901064,-2.635773,-49.342105,1.243368
0.020000,14.872185,21.896630,8.005118,8.828612,-3.622615,-49.342105,1.236140
0.020000,14.930596,22.062283,8.180769,8.736423,-4.609457,-49.342105,1.227151
0.020000,14.989939,22.225434,8.354378,8.624497,-5.596299,-49.342105,1.216419
0.020000,15.050310,22.385607,8.525551,8.492834,-6.583142,-49.342105,1.203974
0.020000,15.111768,22.542329,8.693894,8.341434,-7.569984,-49.342105,1.189856
0.020000,15.174337,22.695130,8.859011,8.170298,-8.556826,-49.342105,1.174121
0.020000,15.237992,22.843551,9.020508,7.979424,-9.543668,-49.342105,1.156846
0.020000,15.302659,22.987141,9.177991,7.768814,-10.530510,-49.342105,1.138127
0.020000,15.368209,23.125466,9.331063,7.538467,-11.517352,-49.342105,1.118090
0.020000,15.434511,23.258230,9.479464,7.301625,-11.842105,-16.237661,1.096865
0.020000,15.501478,23.385328,9.623128,7.064783,-11.842105,-0.000000,1.074576
0.020000,15.569018,23.506728,9.762056,6.827941,-11.842105,-0.000000,1.051348
0.020000,15.637008,23.622416,9.896246,6.591099,-11.842105,0.000000,1.027320
0.020000,15.705297,23.732388,10.025700,6.354257,-11.842105,-0.000000,1.002638
0.020000,15.773709,23.836663,10.150416,6.117414,-11.842105,0.000000,0.977460
0.020000,15.842045,23.935276,10.270396,5.880572,-11.842105,-0.000000,0.951949
0.020000,15.910086,24.028285,10.385639,5.643730,-11.842105,0.000000,0.926273
0.020000,15.977599,24.115766,10.496145,5.406888,-11.842105,0.000000,0.900603
0.020000,16.044339,24.197816,10.601915,5.170046,-11.842105,0.000000,0.875107
0.020000,16.110056,24.274551,10.702947,4.933204,-11.842105,0.000000,0.849947
0.020000,16.174495,24.346105,10.799243,4.696362,-11.842105,0.000000,0.825278
0.020000,16.237404,24.412627,10.890802,4.459520,-11.842105,-0.000000,0.801246
0.020000,16.298533,24.474278,10.977624,4.222678,-11.842105,0.000000,0.777983
0.020000,16.357643,24.531232,11.059709,3.985836,-11.842105,0.000000,0.755605
0.020000,16.414503,24.583667,11.137057,3.748993,-11.842105,0.000000,0.734218
0.020000,16.468896,24.631767,11.209669,3.512151,-11.842105,-0.000000,0.713909
0.020000,16.520618,24.675718,11.277543,3.275309,-11.842105,0.000000,0.694753
0.020000,16.569480,24.715701,11.340681,3.038467,-11.842105,0.000000,0.676810
0.020000,16.615311,24.751897,11.399082,2.801625,-11.842105,0.000000,0.660128
0.020000,16.657952,24.784478,11.452746,2.564783,-11.842105,0.000000,0.644743
0.020000,16.697263,24.813606,11.501673,2.327941,-11.842105,0.000000,0.630682
0.020000,16.733117,24.839438,11.545864,2.091099,-11.842105,0.000000,0.617966
0.020000,16.765403,24.862113,11.585317,1.854257,-11.842105,0.000000,0.606605
0.020000,16.794024,24.881761,11.620034,1.617414,-11.842105,0.000000,0.596608
0.020000,16.818897,24.898498,11.650014,1.380572,-11.842105,-0.000000,0.587978
0.020000,16.840062,24.912496,11.675389,1.156972,-11.180016,33.104444,0.580677
0.020000,16.857739,24.924018,11.696490,0.953109,-10.193174,49.342105,0.574610
0.020000,16.872219,24.933343,11.713711,0.768982,-9.206332,49.342105,0.569661
0.020000,16.883799,24.940728,11.727447,0.604592,-8.219490,49.342105,0.565718
0.020000,16.892795,24.946420,11.738092,0.459939,-7.232648,49.342105,0.562662
0.020000,16.899524,24.950653,11.746042,0.335023,-6.245806,49.342105,0.560382
0.020000,16.904310,24.953651,11.751690,0.229844,-5.258964,49.342105,0.558762
0.020000,16.907485,24.955633,11.755433,0.144401,-4.272122,49.342105,0.557690
0.020000,16.909378,24.956814,11.757664,0.078696,-3.285280,49.342105,0.557050
0.020000,16.910325,24.957403,11.758778,0.032727,-2.298437,49.342105,0.556730
0.020000,16.910658,24.957610,11.759170,0.006495,-1.311595,49.342105,0.556618
0.020000,16.910713,24.957645,11.759235,0.000000,-0.324753,49.342105,0.556599
0.020000,16.910713,24.957645,11.759235,0.000000,0.000000,16.237661,0.556599
