dt,x,y,position,velocity,acceleration,jerk,heading
0.020000,0.000902,0.911500,0.000193,0.019290,0.964506,48.225309,6.282196
0.020000,0.000867,0.911500,0.000228,0.001755,-0.876762,-92.063409,6.282234
0.020000,0.000788,0.911500,0.000307,0.003949,0.109705,49.323348,6.282321
0.020000,0.000647,0.911500,0.000447,0.007022,0.153656,2.197562,6.282475
0.020000,0.000428,0.911500,0.000667,0.010976,0.197714,2.202877,6.282716
0.020000,0.000111,0.911500,0.000983,0.015815,0.241945,2.211588,6.283063
0.020000,0.006689,0.911501,0.007561,0.328870,15.652754,770.540427,0.000351
0.020000,0.018469,0.911509,0.019341,0.589002,13.006563,-132.309532,0.000969
0.020000,0.033380,0.911529,0.034252,0.745573,7.828590,-258.898693,0.001754
0.020000,0.051786,0.911570,0.052657,0.920260,8.734351,45.288070,0.002725
0.020000,0.074051,0.911644,0.074923,1.113285,9.651230,45.843970,0.003903
0.020000,0.100546,0.911766,0.101418,1.324762,10.573862,46.131561,0.005311
0.020000,0.131631,0.911957,0.132504,1.554292,11.476472,45.130516,0.006971
0.020000,0.167675,0.912243,0.168549,1.802249,12.397857,46.069281,0.008907
0.020000,0.209037,0.912658,0.209913,2.068188,13.296940,44.954142,0.011143
0.020000,0.256083,0.913242,0.256963,2.352493,14.215254,45.915702,0.013705
0.020000,0.309168,0.914047,0.310054,2.654554,15.103043,44.389433,0.016620
0.020000,0.368652,0.915134,0.369548,2.974713,16.007949,45.245317,0.019917
0.020000,0.434889,0.916576,0.435801,3.312627,16.895739,44.389491,0.023629
0.020000,0.508234,0.918462,0.509170,3.668449,17.791057,44.765904,0.027788
0.020000,0.589036,0.920895,0.590009,4.041951,18.675124,44.203329,0.032431
0.020000,0.677636,0.923998,0.678663,4.432712,19.538045,43.146066,0.037598
0.020000,0.774376,0.927914,0.775482,4.840967,20.412748,43.735126,0.043331
0.020000,0.879588,0.932809,0.880808,5.266270,21.265174,42.621300,0.049678
0.020000,0.993415,0.938867,0.994795,5.699394,21.656189,19.550767,0.056680
0.020000,1.115810,0.946282,1.117416,6.131008,21.580699,-3.774521,0.064370
0.020000,1.246718,0.955271,1.248631,6.560773,21.488257,-4.622058,0.072786
0.020000,1.385895,0.966059,1.388226,6.979744,20.948537,-26.986037,0.081958
0.020000,1.532906,0.978868,1.535794,7.378395,19.932557,-50.798985,0.091907
0.020000,1.687304,0.993932,1.690925,7.756575,18.908983,-51.178678,0.102657
0.020000,1.848637,1.011491,1.853211,8.114287,17.885587,-51.169832,0.114232
0.020000,2.016445,1.031796,2.022242,8.451569,16.864123,-51.073176,0.126662
0.020000,2.190254,1.055100,2.197607,8.768248,15.833966,-51.507862,0.139976
0.020000,2.369579,1.081662,2.378888,9.064030,14.789068,-52.244895,0.154205
0.020000,2.553921,1.111741,2.565669,9.339046,13.750823,-51.912256,0.169381
0.020000,2.742778,1.145603,2.757537,9.593411,12.718221,-51.630121,0.185537
0.020000,2.935628,1.183506,2.954076,9.826959,11.677407,-52.040699,0.202708
0.020000,3.131933,1.225708,3.154867,10.039541,10.629132,-52.413707,0.220927
0.020000,3.331150,1.272461,3.359496,10.231451,9.595476,-51.682816,0.240224
0.020000,3.532719,1.324007,3.567552,10.402780,8.566476,-51.450000,0.260630
0.020000,3.736068,1.380577,3.778623,10.553553,7.538626,-51.392488,0.282170
0.020000,3.940617,1.442384,3.992306,10.684146,6.529665,-50.448080,0.304867
0.020000,4.145774,1.509625,4.208201,10.794740,5.529678,-49.999357,0.328733
0.020000,4.350941,1.582471,4.425916,10.885767,4.551341,-48.916837,0.353776
0.020000,4.555516,1.661066,4.645070,10.957703,3.596802,-47.726960,0.379991
0.020000,4.758899,1.745523,4.865291,11.011063,2.668021,-46.439043,0.407363
0.020000,4.960490,1.835917,5.086221,11.046513,1.772488,-44.776658,0.435860
0.020000,5.159702,1.932285,5.307518,11.064820,0.915354,-42.856664,0.465437
0.020000,5.355958,2.034621,5.528852,11.066709,0.094450,-41.045208,0.496030
0.020000,5.548703,2.142869,5.749914,11.053121,-0.679392,-38.692112,0.527555
0.020000,5.737410,2.256926,5.970412,11.024874,-1.412351,-36.647950,0.559912
0.020000,5.921719,2.376732,6.190238,10.991280,-1.679691,-13.367001,0.593005
0.020000,6.101433,2.502289,6.409468,10.961510,-1.488506,9.559243,0.626750
0.020000,6.276367,2.633585,6.628193,10.936238,-1.263594,11.245605,0.661050
0.020000,6.446345,2.770587,6.846509,10.915837,-1.020049,12.177248,0.695797
0.020000,6.611210,2.913245,7.064527,10.900886,-0.747585,13.623208,0.730873
0.020000,6.770819,3.061489,7.282360,10.891645,-0.462014,14.278546,0.766150
0.020000,6.925046,3.215231,7.500127,10.888364,-0.164053,14.898069,0.801500
0.020000,7.073783,3.374366,7.717949,10.891108,0.137188,15.062051,0.836789
0.020000,7.216941,3.538768,7.935946,10.899818,0.435507,14.915920,0.871888
0.020000,7.354449,3.708298,8.154232,10.914303,0.724230,14.436184,0.906669
0.020000,7.486255,3.882797,8.372915,10.934179,0.993822,13.479567,0.941014
0.020000,7.612324,4.062093,8.592097,10.959106,1.246343,12.626073,0.974812
0.020000,7.732642,4.246001,8.811867,10.988465,1.467937,11.079678,1.007967
0.020000,7.847210,4.434324,9.032301,11.021718,1.662652,9.735759,1.040392
0.020000,7.955967,4.626707,9.253297,11.049806,1.404391,-12.913051,1.071992
0.020000,8.058808,4.822623,9.474565,11.063388,0.679140,-36.262560,1.102664
0.020000,8.155675,5.021518,9.695794,11.061472,-0.095798,-38.746901,1.132324
0.020000,8.246561,5.222818,9.916660,11.043285,-0.909393,-40.679750,1.160906
0.020000,8.331498,5.425932,10.136819,11.007926,-1.767944,-42.927538,1.188364
0.020000,8.410562,5.630264,10.355913,10.954741,-2.659221,-44.563869,1.214665
0.020000,8.483864,5.835210,10.573574,10.883012,-3.586443,-46.361090,1.239792
0.020000,8.551546,6.040168,10.789419,10.792245,-4.538347,-47.595170,1.263742
0.020000,8.613780,6.244542,11.003057,10.681940,-5.515249,-48.845129,1.286520
0.020000,8.670759,6.447737,11.214091,10.551654,-6.514329,-49.953977,1.308139
0.020000,8.722698,6.649172,11.422114,10.401151,-7.525130,-50.540070,1.328620
0.020000,8.769827,6.848273,11.626716,10.230139,-8.550596,-51.273299,1.347990
0.020000,8.812387,7.044482,11.827488,10.038597,-9.577139,-51.327158,1.366277
0.020000,8.850631,7.237249,12.024013,9.826233,-10.618167,-52.051374,1.383513
0.020000,8.884815,7.426042,12.215875,9.593120,-11.655685,-51.875909,1.399732
0.020000,8.915200,7.610338,12.402659,9.339180,-12.696976,-52.064549,1.414966
0.020000,8.942049,7.789626,12.583947,9.064393,-13.739356,-52.118986,1.429249
0.020000,8.965623,7.963412,12.759324,8.768885,-14.775373,-51.800893,1.442614
0.020000,8.986181,8.131210,12.928377,8.452620,-15.813282,-51.895422,1.455093
0.020000,9.003978,8.292544,13.090690,8.115642,-16.848880,-51.779883,1.466713
0.020000,9.019262,8.446954,13.245854,7.758229,-17.870658,-51.088923,1.477505
0.020000,9.032275,8.593987,13.393462,7.380375,-18.892692,-51.101680,1.487493
0.020000,9.043251,8.733195,13.533101,6.981978,-19.919849,-51.357854,1.496701
0.020000,9.052413,8.864142,13.664369,6.563377,-20.930078,-50.511476,1.505151
0.020000,9.059986,8.986584,13.787045,6.133797,-21.478987,-27.445439,1.512871
0.020000,9.066187,9.100460,13.901090,5.702255,-21.577097,-4.905487,1.519901
0.020000,9.071212,9.205726,14.006476,5.269294,-21.648063,-3.548329,1.526274
0.020000,9.075244,9.302522,14.103355,4.843969,-21.266245,19.090936,1.532030
0.020000,9.078452,9.391177,14.192069,4.435681,-20.414415,42.591506,1.537218
0.020000,9.080979,9.472034,14.272965,4.044803,-19.543903,43.525573,1.541880
0.020000,9.082948,9.545432,14.346390,3.671241,-18.678073,43.291484,1.546057
0.020000,9.084464,9.611722,14.412697,3.315344,-17.794861,44.160630,1.549784
0.020000,9.085617,9.671257,14.472242,2.977296,-16.902412,44.622434,1.553095
0.020000,9.086480,9.724391,14.525383,2.657045,-16.012537,44.493737,1.556023
0.020000,9.087115,9.771483,14.572480,2.354848,-15.109826,45.135569,1.558595
0.020000,9.087573,9.812890,14.613890,2.070467,-14.219064,44.538076,1.560841
0.020000,9.087898,9.848976,14.649977,1.804383,-13.304200,45.743198,1.562785
0.020000,9.088121,9.880101,14.681103,1.556285,-12.404878,44.966142,1.564452
0.020000,9.088270,9.906634,14.707636,1.326651,-11.481722,46.157790,1.565867
0.020000,9.088367,9.928934,14.729937,1.115027,-10.581203,45.025922,1.567051
0.020000,9.088427,9.947371,14.748374,0.921869,-9.657898,46.165293,1.568027
0.020000,9.088463,9.962312,14.763315,0.747044,-8.741268,45.831452,1.568816
0.020000,9.088482,9.974119,14.775121,0.590323,-7.836014,45.262727,1.569438
0.020000,9.088493,9.983165,14.784167,0.452302,-6.901070,46.747216,1.569913
0.020000,9.088497,9.989812,14.790815,0.332374,-5.996381,45.234427,1.570262
0.020000,9.088499,9.994433,14.795436,0.231057,-5.065852,46.526448,1.570505
0.020000,9.088500,9.997395,14.798397,0.148073,-4.149210,45.832117,1.570660
0.020000,9.088500,9.999064,14.800067,0.083464,-3.230472,45.936878,1.570747
0.020000,9.088500,9.999809,14.800812,0.037255,-2.310453,46.000954,1.570786
0.020000,9.088500,9.999998,14.801001,0.009459,-1.389764,46.034473,1.570796
0.020000,9.088500,10.000000,14.801003,0.000083,-0.468812,46.047584,1.570796
0.020000,9.088500,10.000000,14.801003,0.000000,-0.004155,23.232846,1.570796
